{
  "result": {
      "data": {
          "middle": {
              "box": [],
              "list": [
                  {
                      "summary": "国务院办公厅关于2020年 部分节假日安排的通知 国办发明电〔2019〕16号 各省、自治区、直辖市人民政府，国务院各部委、各直属机构： 经国务院批准，现将2020年元旦、春节、清明节、劳动节、端午节、国庆节和中秋节放假调休日期的具体安排通知如下。 一、元旦：2020年1月1日放假，共1天。 二、春节：1月24日至30日放假调休，共7天。1月19日（星期日）、2月1日（星期六）上班。 三、清明节：",
                      "Issue": [
                          "第34号"
                      ],
                      "documentType": 8,
                      "year": "2019年",
                      "document": "16",
                      "agencies": [
                          "国务院办公厅"
                      ],
                      "label": "国务院公报",
                      "source": 14,
                      "type": [
                          "国办发明电"
                      ],
                      "title": "国务院办公厅关于2020年部分<em>节假日</em><em>安排</em>的通知",
                      "url": "http://www.gov.cn/gongbao/content/2019/content_5459138.htm",
                      "content": "国务院办公厅关于2020年 部分节假日安排的通知 国办发明电〔2019〕16号 各省、自治区、直辖市人民政府，国务院各部委、各直属机构： 经国务院批准，现将2020年元旦、春节、清明节、劳动节、端午节、国庆节和中秋节放假调休日期的具体安排通知如下。 一、元旦：2020年1月1日放假，共1天。 二、春节：1月24日至30日放假调休，共7天。1月19日（星期日）、2月1日（星期六）上班。 三、清明节：",
                      "general": "1681",
                      "title_no_tag": "国务院办公厅关于2020年部分节假日安排的通知",
                      "displayTemplateId": 6,
                      "documentId": "Sd7ZDIgB6uX4EyfjBKht",
                      "time": "2019-12-10 10:30:00",
                      "pubcode": 14
                  },
                  {
                      "summary": "2020年节假日放假安排公布",
                      "documentType": 8,
                      "agencies": 33,
                      "label": "要闻",
                      "source": 33,
                      "type": 8,
                      "title": "图表：2020年<em>节假日</em>放假<em>安排</em>公布",
                      "url": "http://www.gov.cn/xinwen/2019-11/22/content_5454396.htm",
                      "content": "图表：2020年节假日放假安排公布 新华社发 边纪红 制图",
                      "imgUrl": "[{\"name\":\"01-300.jpg.jpg\",\"url\":\"/xinwen/2019-11/22/W020220411697235723815.jpg\",\"others\":\"\"}]",
                      "title_no_tag": "图表：2020年节假日放假安排公布",
                      "displayTemplateId": 106,
                      "documentId": "4ZLgD4gBVvGO6-uhtnIk",
                      "time": "2019-11-22 07:40:22",
                      "pubcode": 33
                  },
                  {
                      "summary": "通知指出，节假日期间，各地区、各部门要妥善安排好值班和安全、保卫等工作，遇有重大突发事件，要按规定及时报告并妥善处置，确保人民群众祥和平安度过节日假期。",
                      "documentType": 8,
                      "agencies": 33,
                      "label": "要闻",
                      "source": 33,
                      "type": 8,
                      "title": "2020年<em>节假日</em>放假<em>安排</em>公布",
                      "url": "http://www.gov.cn/xinwen/2019-11/21/content_5454388.htm",
                      "content": "新华社北京11月21日电（记者 安蓓）中国政府网21日公布《国务院办公厅关于2020年部分节假日安排的通知》，经国务院批准，2020年节假日安排为：元旦1月1日放假，共1天；春节1月24日至30日放假调休，共7天，1月19日（星期日）、2月1日（星期六）上班；清明节4月4日至6日放假调休，共3天；劳动节5月1日至5日放假调休，共5天，4月26日（星期日）、5月9日（星期六）上班；端午节6月25日至",
                      "imgUrl": null,
                      "title_no_tag": "2020年节假日放假安排公布",
                      "displayTemplateId": 106,
                      "documentId": "thirdparty_code_107_t_17e00f1efbb_19221638",
                      "time": "2019-11-21 19:45:20",
                      "pubcode": 33
                  },
                  {
                      "summary": "经国务院批准，现将2020年元旦、春节、清明节、劳动节、端午节、国庆节和中秋节放假调休日期的具体安排通知如下。",
                      "documentType": "通知",
                      "agencies": "国务院办公厅",
                      "label": "国务院办公厅",
                      "source": "国务院办公厅",
                      "type": "其他",
                      "title": "国务院办公厅关于2020年部分<em>节假日</em><em>安排</em>的通知",
                      "url": "http://www.gov.cn/zhengce/content/2019-11/21/content_5454164.htm",
                      "content": "国务院办公厅关于2020年 部分节假日安排的通知 国办发明电〔2019〕16号 各省、自治区、直辖市人民政府，国务院各部委、各直属机构： 经国务院批准，现将2020年元旦、春节、清明节、劳动节、端午节、国庆节和中秋节放假调休日期的具体安排通知如下。 一、元旦：2020年1月1日放假，共1天。 二、春节：1月24日至30日放假调休，共7天。1月19日（星期日）、2月1日（星期六）上班。 三、清明节：",
                      "title_no_tag": "国务院办公厅关于2020年部分节假日安排的通知",
                      "displayTemplateId": 164,
                      "documentId": "C_LFD4gB6uX4EyfjI5Rj",
                      "time": "2019-11-21 16:48:00",
                      "pubcode": "国办发明电〔2019〕16号"
                  },
                  {
                      "summary": "国务院办公厅关于2019年 部分节假日安排的通知 国办发明电〔2018〕15号 各省、自治区、直辖市人民政府，国务院各部委、各直属机构： 经国务院批准，现将2019年元旦、春节、清明节、劳动节、端午节、中秋节和国庆节放假调休日期的具体安排通知如下。 一、元旦：2018年12月30日至2019年1月1日放假调休，共3天。2018年12月29日（星期六）上班。 二、春节：2月4日至10日放假调休，共7",
                      "Issue": [
                          "第35号"
                      ],
                      "documentType": 8,
                      "year": "2018年",
                      "document": "15",
                      "agencies": [
                          "国务院办公厅"
                      ],
                      "label": "国务院公报",
                      "source": 14,
                      "type": [
                          "国办发明电"
                      ],
                      "title": "国务院办公厅关于2019年部分<em>节假日</em><em>安排</em>的通知",
                      "url": "http://www.gov.cn/gongbao/content/2018/content_5350046.htm",
                      "content": "国务院办公厅关于2019年 部分节假日安排的通知 国办发明电〔2018〕15号 各省、自治区、直辖市人民政府，国务院各部委、各直属机构： 经国务院批准，现将2019年元旦、春节、清明节、劳动节、端午节、中秋节和国庆节放假调休日期的具体安排通知如下。 一、元旦：2018年12月30日至2019年1月1日放假调休，共3天。2018年12月29日（星期六）上班。 二、春节：2月4日至10日放假调休，共7",
                      "general": "1646",
                      "title_no_tag": "国务院办公厅关于2019年部分节假日安排的通知",
                      "displayTemplateId": 6,
                      "documentId": "St7eDIgB6uX4Eyfjhbu7",
                      "time": "2018-12-20 08:00:00",
                      "pubcode": 14
                  },
                  {
                      "summary": "图表：国务院办公厅关于2019年部分节假日安排的通知",
                      "documentType": 8,
                      "agencies": 33,
                      "label": "要闻",
                      "source": 33,
                      "type": 8,
                      "title": "国务院办公厅关于2019年部分<em>节假日</em><em>安排</em>的通知",
                      "url": "http://www.gov.cn/xinwen/2018-12/06/content_5346393.htm",
                      "content": "图表：国务院办公厅关于2019年部分节假日安排的通知 新华社发 边纪红 制图",
                      "imgUrl": "[{\"name\":\"257.1.jpg.jpg\",\"url\":\"/xinwen/2018-12/06/W020220411650070741892.jpg\",\"others\":\"\"}]",
                      "title_no_tag": "国务院办公厅关于2019年部分节假日安排的通知",
                      "displayTemplateId": 106,
                      "documentId": "QfPdD4gB6uX4EyfjkJeU",
                      "time": "2018-12-06 23:39:22",
                      "pubcode": 33
                  },
                  {
                      "summary": "经国务院批准，现将2019年元旦、春节、清明节、劳动节、端午节、中秋节和国庆节放假调休日期的具体安排通知如下。",
                      "documentType": "通知",
                      "agencies": "国务院办公厅",
                      "label": "国务院办公厅",
                      "source": "国务院办公厅",
                      "type": "其他",
                      "title": "国务院办公厅关于2019年部分<em>节假日</em><em>安排</em>的通知",
                      "url": "http://www.gov.cn/zhengce/content/2018-12/06/content_5346276.htm",
                      "content": "国务院办公厅关于2019年 部分节假日安排的通知 国办发明电〔2018〕15号 各省、自治区、直辖市人民政府，国务院各部委、各直属机构： 经国务院批准，现将2019年元旦、春节、清明节、劳动节、端午节、中秋节和国庆节放假调休日期的具体安排通知如下。 一、元旦：2018年12月30日至2019年1月1日放假调休，共3天。2018年12月29日（星期六）上班。 二、春节：2月4日至10日放假调休，共7",
                      "title_no_tag": "国务院办公厅关于2019年部分节假日安排的通知",
                      "displayTemplateId": 164,
                      "documentId": "8vLFD4gB6uX4EyfjH5O4",
                      "time": "2018-12-06 17:58:00",
                      "pubcode": "国办发明电〔2018〕15号"
                  },
                  {
                      "summary": "国务院办公厅关于2018年 部分节假日安排的通知 国办发明电〔2017〕12号 各省、自治区、直辖市人民政府，国务院各部委、各直属机构： 经国务院批准，现将2018年元旦、春节、清明节、劳动节、端午节、中秋节和国庆节放假调休日期的具体安排通知如下。 一、元旦：1月1日放假，与周末连休。 二、春节：2月15日至21日放假调休，共7天。2月11日（星期日）、2月24日（星期六）上班。 三、清明节：4月",
                      "Issue": [
                          "第35号"
                      ],
                      "documentType": 8,
                      "year": "2017年",
                      "document": "12",
                      "agencies": [
                          "国务院办公厅"
                      ],
                      "label": "国务院公报",
                      "source": 14,
                      "type": [
                          "国办发明电"
                      ],
                      "title": "国务院办公厅关于2018年部分<em>节假日</em><em>安排</em>的通知",
                      "url": "http://www.gov.cn/gongbao/content/2017/content_5248221.htm",
                      "content": "国务院办公厅关于2018年 部分节假日安排的通知 国办发明电〔2017〕12号 各省、自治区、直辖市人民政府，国务院各部委、各直属机构： 经国务院批准，现将2018年元旦、春节、清明节、劳动节、端午节、中秋节和国庆节放假调休日期的具体安排通知如下。 一、元旦：1月1日放假，与周末连休。 二、春节：2月15日至21日放假调休，共7天。2月11日（星期日）、2月24日（星期六）上班。 三、清明节：4月",
                      "general": "1610",
                      "title_no_tag": "国务院办公厅关于2018年部分节假日安排的通知",
                      "displayTemplateId": 6,
                      "documentId": "Gt7kDIgB6uX4Eyfjes37",
                      "time": "2017-12-20 08:00:00",
                      "pubcode": 14
                  },
                  {
                      "summary": "国务院办公厅关于2018年部分节假日安排的通知",
                      "documentType": "通知",
                      "agencies": "国务院办公厅",
                      "label": "国务院办公厅",
                      "source": "国务院办公厅",
                      "type": "其他",
                      "title": "国务院办公厅关于2018年部分<em>节假日</em><em>安排</em>的通知",
                      "url": "http://www.gov.cn/zhengce/content/2017-11/30/content_5243579.htm",
                      "content": "国务院办公厅关于2018年 部分节假日安排的通知 国办发明电〔2017〕12号 各省、自治区、直辖市人民政府，国务院各部委、各直属机构： 经国务院批准，现将2018年元旦、春节、清明节、劳动节、端午节、中秋节和国庆节放假调休日期的具体安排通知如下。 一、元旦：1月1日放假，与周末连休。 二、春节：2月15日至21日放假调休，共7天。2月11日（星期日）、2月24日（星期六）上班。 三、清明节：4月",
                      "title_no_tag": "国务院办公厅关于2018年部分节假日安排的通知",
                      "displayTemplateId": 164,
                      "documentId": "I53FD4gB_31RV0sVG96C",
                      "time": "2017-11-30 23:07:50",
                      "pubcode": "国办发明电〔2017〕12号"
                  },
                  {
                      "summary": "国务院办公厅关于2017年 部分节假日安排的通知 　　　　　　　　　　　　　　　　　　　　　　　　　　　　　　　　　　　　　　　　 　国办发明电〔2016〕17号 各省、自治区、直辖市人民政府，国务院各部委、各直属机构： 经国务院批准，现将2017年元旦、春节、清明节、劳动节、端午节、中秋节和国庆节放假调休日期的具体安排通知如下。 一、元旦：1月1日放假，1月2日（星期一）补休。 二、春节：1月2",
                      "Issue": [
                          "第35号"
                      ],
                      "documentType": 8,
                      "year": "2016年",
                      "document": "17",
                      "agencies": [
                          "国务院办公厅"
                      ],
                      "label": "国务院公报",
                      "source": 14,
                      "type": [
                          "国办发明电"
                      ],
                      "title": "国务院办公厅关于2017年部分<em>节假日</em><em>安排</em>的通知",
                      "url": "http://www.gov.cn/gongbao/content/2016/content_5148793.htm",
                      "content": "国务院办公厅关于2017年 部分节假日安排的通知 　　　　　　　　　　　　　　　　　　　　　　　　　　　　　　　　　　　　　　　　 　国办发明电〔2016〕17号 各省、自治区、直辖市人民政府，国务院各部委、各直属机构： 经国务院批准，现将2017年元旦、春节、清明节、劳动节、端午节、中秋节和国庆节放假调休日期的具体安排通知如下。 一、元旦：1月1日放假，1月2日（星期一）补休。 二、春节：1月2",
                      "general": "1574",
                      "title_no_tag": "国务院办公厅关于2017年部分节假日安排的通知",
                      "displayTemplateId": 6,
                      "documentId": "P97sDIgB6uX4EyfjouiJ",
                      "time": "2016-12-20 07:55:00",
                      "pubcode": 14
                  }
              ],
              "listAndBox": [
                  {
                      "data": {
                          "summary": "国务院办公厅关于2020年 部分节假日安排的通知 国办发明电〔2019〕16号 各省、自治区、直辖市人民政府，国务院各部委、各直属机构： 经国务院批准，现将2020年元旦、春节、清明节、劳动节、端午节、国庆节和中秋节放假调休日期的具体安排通知如下。 一、元旦：2020年1月1日放假，共1天。 二、春节：1月24日至30日放假调休，共7天。1月19日（星期日）、2月1日（星期六）上班。 三、清明节：",
                          "Issue": [
                              "第34号"
                          ],
                          "documentType": 8,
                          "year": "2019年",
                          "document": "16",
                          "agencies": [
                              "国务院办公厅"
                          ],
                          "label": "国务院公报",
                          "source": 14,
                          "type": [
                              "国办发明电"
                          ],
                          "title": "国务院办公厅关于2020年部分<em>节假日</em><em>安排</em>的通知",
                          "url": "http://www.gov.cn/gongbao/content/2019/content_5459138.htm",
                          "content": "国务院办公厅关于2020年 部分节假日安排的通知 国办发明电〔2019〕16号 各省、自治区、直辖市人民政府，国务院各部委、各直属机构： 经国务院批准，现将2020年元旦、春节、清明节、劳动节、端午节、国庆节和中秋节放假调休日期的具体安排通知如下。 一、元旦：2020年1月1日放假，共1天。 二、春节：1月24日至30日放假调休，共7天。1月19日（星期日）、2月1日（星期六）上班。 三、清明节：",
                          "general": "1681",
                          "title_no_tag": "国务院办公厅关于2020年部分节假日安排的通知",
                          "displayTemplateId": 6,
                          "documentId": "Sd7ZDIgB6uX4EyfjBKht",
                          "time": "2019-12-10 10:30:00",
                          "pubcode": 14
                      },
                      "type": "DATA"
                  },
                  {
                      "data": {
                          "summary": "2020年节假日放假安排公布",
                          "documentType": 8,
                          "agencies": 33,
                          "label": "要闻",
                          "source": 33,
                          "type": 8,
                          "title": "图表：2020年<em>节假日</em>放假<em>安排</em>公布",
                          "url": "http://www.gov.cn/xinwen/2019-11/22/content_5454396.htm",
                          "content": "图表：2020年节假日放假安排公布 新华社发 边纪红 制图",
                          "imgUrl": "[{\"name\":\"01-300.jpg.jpg\",\"url\":\"/xinwen/2019-11/22/W020220411697235723815.jpg\",\"others\":\"\"}]",
                          "title_no_tag": "图表：2020年节假日放假安排公布",
                          "displayTemplateId": 106,
                          "documentId": "4ZLgD4gBVvGO6-uhtnIk",
                          "time": "2019-11-22 07:40:22",
                          "pubcode": 33
                      },
                      "type": "DATA"
                  },
                  {
                      "data": {
                          "summary": "通知指出，节假日期间，各地区、各部门要妥善安排好值班和安全、保卫等工作，遇有重大突发事件，要按规定及时报告并妥善处置，确保人民群众祥和平安度过节日假期。",
                          "documentType": 8,
                          "agencies": 33,
                          "label": "要闻",
                          "source": 33,
                          "type": 8,
                          "title": "2020年<em>节假日</em>放假<em>安排</em>公布",
                          "url": "http://www.gov.cn/xinwen/2019-11/21/content_5454388.htm",
                          "content": "新华社北京11月21日电（记者 安蓓）中国政府网21日公布《国务院办公厅关于2020年部分节假日安排的通知》，经国务院批准，2020年节假日安排为：元旦1月1日放假，共1天；春节1月24日至30日放假调休，共7天，1月19日（星期日）、2月1日（星期六）上班；清明节4月4日至6日放假调休，共3天；劳动节5月1日至5日放假调休，共5天，4月26日（星期日）、5月9日（星期六）上班；端午节6月25日至",
                          "imgUrl": null,
                          "title_no_tag": "2020年节假日放假安排公布",
                          "displayTemplateId": 106,
                          "documentId": "thirdparty_code_107_t_17e00f1efbb_19221638",
                          "time": "2019-11-21 19:45:20",
                          "pubcode": 33
                      },
                      "type": "DATA"
                  },
                  {
                      "data": {
                          "summary": "经国务院批准，现将2020年元旦、春节、清明节、劳动节、端午节、国庆节和中秋节放假调休日期的具体安排通知如下。",
                          "documentType": "通知",
                          "agencies": "国务院办公厅",
                          "label": "国务院办公厅",
                          "source": "国务院办公厅",
                          "type": "其他",
                          "title": "国务院办公厅关于2020年部分<em>节假日</em><em>安排</em>的通知",
                          "url": "http://www.gov.cn/zhengce/content/2019-11/21/content_5454164.htm",
                          "content": "国务院办公厅关于2020年 部分节假日安排的通知 国办发明电〔2019〕16号 各省、自治区、直辖市人民政府，国务院各部委、各直属机构： 经国务院批准，现将2020年元旦、春节、清明节、劳动节、端午节、国庆节和中秋节放假调休日期的具体安排通知如下。 一、元旦：2020年1月1日放假，共1天。 二、春节：1月24日至30日放假调休，共7天。1月19日（星期日）、2月1日（星期六）上班。 三、清明节：",
                          "title_no_tag": "国务院办公厅关于2020年部分节假日安排的通知",
                          "displayTemplateId": 164,
                          "documentId": "C_LFD4gB6uX4EyfjI5Rj",
                          "time": "2019-11-21 16:48:00",
                          "pubcode": "国办发明电〔2019〕16号"
                      },
                      "type": "DATA"
                  },
                  {
                      "data": {
                          "summary": "国务院办公厅关于2019年 部分节假日安排的通知 国办发明电〔2018〕15号 各省、自治区、直辖市人民政府，国务院各部委、各直属机构： 经国务院批准，现将2019年元旦、春节、清明节、劳动节、端午节、中秋节和国庆节放假调休日期的具体安排通知如下。 一、元旦：2018年12月30日至2019年1月1日放假调休，共3天。2018年12月29日（星期六）上班。 二、春节：2月4日至10日放假调休，共7",
                          "Issue": [
                              "第35号"
                          ],
                          "documentType": 8,
                          "year": "2018年",
                          "document": "15",
                          "agencies": [
                              "国务院办公厅"
                          ],
                          "label": "国务院公报",
                          "source": 14,
                          "type": [
                              "国办发明电"
                          ],
                          "title": "国务院办公厅关于2019年部分<em>节假日</em><em>安排</em>的通知",
                          "url": "http://www.gov.cn/gongbao/content/2018/content_5350046.htm",
                          "content": "国务院办公厅关于2019年 部分节假日安排的通知 国办发明电〔2018〕15号 各省、自治区、直辖市人民政府，国务院各部委、各直属机构： 经国务院批准，现将2019年元旦、春节、清明节、劳动节、端午节、中秋节和国庆节放假调休日期的具体安排通知如下。 一、元旦：2018年12月30日至2019年1月1日放假调休，共3天。2018年12月29日（星期六）上班。 二、春节：2月4日至10日放假调休，共7",
                          "general": "1646",
                          "title_no_tag": "国务院办公厅关于2019年部分节假日安排的通知",
                          "displayTemplateId": 6,
                          "documentId": "St7eDIgB6uX4Eyfjhbu7",
                          "time": "2018-12-20 08:00:00",
                          "pubcode": 14
                      },
                      "type": "DATA"
                  },
                  {
                      "data": {
                          "summary": "图表：国务院办公厅关于2019年部分节假日安排的通知",
                          "documentType": 8,
                          "agencies": 33,
                          "label": "要闻",
                          "source": 33,
                          "type": 8,
                          "title": "国务院办公厅关于2019年部分<em>节假日</em><em>安排</em>的通知",
                          "url": "http://www.gov.cn/xinwen/2018-12/06/content_5346393.htm",
                          "content": "图表：国务院办公厅关于2019年部分节假日安排的通知 新华社发 边纪红 制图",
                          "imgUrl": "[{\"name\":\"257.1.jpg.jpg\",\"url\":\"/xinwen/2018-12/06/W020220411650070741892.jpg\",\"others\":\"\"}]",
                          "title_no_tag": "国务院办公厅关于2019年部分节假日安排的通知",
                          "displayTemplateId": 106,
                          "documentId": "QfPdD4gB6uX4EyfjkJeU",
                          "time": "2018-12-06 23:39:22",
                          "pubcode": 33
                      },
                      "type": "DATA"
                  },
                  {
                      "data": {
                          "summary": "经国务院批准，现将2019年元旦、春节、清明节、劳动节、端午节、中秋节和国庆节放假调休日期的具体安排通知如下。",
                          "documentType": "通知",
                          "agencies": "国务院办公厅",
                          "label": "国务院办公厅",
                          "source": "国务院办公厅",
                          "type": "其他",
                          "title": "国务院办公厅关于2019年部分<em>节假日</em><em>安排</em>的通知",
                          "url": "http://www.gov.cn/zhengce/content/2018-12/06/content_5346276.htm",
                          "content": "国务院办公厅关于2019年 部分节假日安排的通知 国办发明电〔2018〕15号 各省、自治区、直辖市人民政府，国务院各部委、各直属机构： 经国务院批准，现将2019年元旦、春节、清明节、劳动节、端午节、中秋节和国庆节放假调休日期的具体安排通知如下。 一、元旦：2018年12月30日至2019年1月1日放假调休，共3天。2018年12月29日（星期六）上班。 二、春节：2月4日至10日放假调休，共7",
                          "title_no_tag": "国务院办公厅关于2019年部分节假日安排的通知",
                          "displayTemplateId": 164,
                          "documentId": "8vLFD4gB6uX4EyfjH5O4",
                          "time": "2018-12-06 17:58:00",
                          "pubcode": "国办发明电〔2018〕15号"
                      },
                      "type": "DATA"
                  },
                  {
                      "data": {
                          "summary": "国务院办公厅关于2018年 部分节假日安排的通知 国办发明电〔2017〕12号 各省、自治区、直辖市人民政府，国务院各部委、各直属机构： 经国务院批准，现将2018年元旦、春节、清明节、劳动节、端午节、中秋节和国庆节放假调休日期的具体安排通知如下。 一、元旦：1月1日放假，与周末连休。 二、春节：2月15日至21日放假调休，共7天。2月11日（星期日）、2月24日（星期六）上班。 三、清明节：4月",
                          "Issue": [
                              "第35号"
                          ],
                          "documentType": 8,
                          "year": "2017年",
                          "document": "12",
                          "agencies": [
                              "国务院办公厅"
                          ],
                          "label": "国务院公报",
                          "source": 14,
                          "type": [
                              "国办发明电"
                          ],
                          "title": "国务院办公厅关于2018年部分<em>节假日</em><em>安排</em>的通知",
                          "url": "http://www.gov.cn/gongbao/content/2017/content_5248221.htm",
                          "content": "国务院办公厅关于2018年 部分节假日安排的通知 国办发明电〔2017〕12号 各省、自治区、直辖市人民政府，国务院各部委、各直属机构： 经国务院批准，现将2018年元旦、春节、清明节、劳动节、端午节、中秋节和国庆节放假调休日期的具体安排通知如下。 一、元旦：1月1日放假，与周末连休。 二、春节：2月15日至21日放假调休，共7天。2月11日（星期日）、2月24日（星期六）上班。 三、清明节：4月",
                          "general": "1610",
                          "title_no_tag": "国务院办公厅关于2018年部分节假日安排的通知",
                          "displayTemplateId": 6,
                          "documentId": "Gt7kDIgB6uX4Eyfjes37",
                          "time": "2017-12-20 08:00:00",
                          "pubcode": 14
                      },
                      "type": "DATA"
                  },
                  {
                      "data": {
                          "summary": "国务院办公厅关于2018年部分节假日安排的通知",
                          "documentType": "通知",
                          "agencies": "国务院办公厅",
                          "label": "国务院办公厅",
                          "source": "国务院办公厅",
                          "type": "其他",
                          "title": "国务院办公厅关于2018年部分<em>节假日</em><em>安排</em>的通知",
                          "url": "http://www.gov.cn/zhengce/content/2017-11/30/content_5243579.htm",
                          "content": "国务院办公厅关于2018年 部分节假日安排的通知 国办发明电〔2017〕12号 各省、自治区、直辖市人民政府，国务院各部委、各直属机构： 经国务院批准，现将2018年元旦、春节、清明节、劳动节、端午节、中秋节和国庆节放假调休日期的具体安排通知如下。 一、元旦：1月1日放假，与周末连休。 二、春节：2月15日至21日放假调休，共7天。2月11日（星期日）、2月24日（星期六）上班。 三、清明节：4月",
                          "title_no_tag": "国务院办公厅关于2018年部分节假日安排的通知",
                          "displayTemplateId": 164,
                          "documentId": "I53FD4gB_31RV0sVG96C",
                          "time": "2017-11-30 23:07:50",
                          "pubcode": "国办发明电〔2017〕12号"
                      },
                      "type": "DATA"
                  },
                  {
                      "data": {
                          "summary": "国务院办公厅关于2017年 部分节假日安排的通知 　　　　　　　　　　　　　　　　　　　　　　　　　　　　　　　　　　　　　　　　 　国办发明电〔2016〕17号 各省、自治区、直辖市人民政府，国务院各部委、各直属机构： 经国务院批准，现将2017年元旦、春节、清明节、劳动节、端午节、中秋节和国庆节放假调休日期的具体安排通知如下。 一、元旦：1月1日放假，1月2日（星期一）补休。 二、春节：1月2",
                          "Issue": [
                              "第35号"
                          ],
                          "documentType": 8,
                          "year": "2016年",
                          "document": "17",
                          "agencies": [
                              "国务院办公厅"
                          ],
                          "label": "国务院公报",
                          "source": 14,
                          "type": [
                              "国办发明电"
                          ],
                          "title": "国务院办公厅关于2017年部分<em>节假日</em><em>安排</em>的通知",
                          "url": "http://www.gov.cn/gongbao/content/2016/content_5148793.htm",
                          "content": "国务院办公厅关于2017年 部分节假日安排的通知 　　　　　　　　　　　　　　　　　　　　　　　　　　　　　　　　　　　　　　　　 　国办发明电〔2016〕17号 各省、自治区、直辖市人民政府，国务院各部委、各直属机构： 经国务院批准，现将2017年元旦、春节、清明节、劳动节、端午节、中秋节和国庆节放假调休日期的具体安排通知如下。 一、元旦：1月1日放假，1月2日（星期一）补休。 二、春节：1月2",
                          "general": "1574",
                          "title_no_tag": "国务院办公厅关于2017年部分节假日安排的通知",
                          "displayTemplateId": 6,
                          "documentId": "P97sDIgB6uX4EyfjouiJ",
                          "time": "2016-12-20 07:55:00",
                          "pubcode": 14
                      },
                      "type": "DATA"
                  }
              ]
          },
          "searchInfo": {
              "searchTerms": null,
              "wordId": "IT5bBogBp1P2gtOH5If9",
              "wordIndexName": "dict-public-20220818",
              "searchWord": "节假日安排",
              "hitWord": "节假日安排"
          },
          "pager": {
              "pageCount": 5,
              "total": 47,
              "pageNo": 2,
              "pageSize": 10
          },
          "left": null,
          "right": {
              "box": []
          },
          "spendTime": 0.015
      }
  },
  "resultCode": {
      "cnMsg": true,
      "code": 200
  }
}