{
  "result": {
      "data": {
          "middle": {
              "box": [],
              "list": [
                  {
                      "summary": "国务院办公厅关于2023年部分节假日安排的通知 国办发明电〔2022〕16号 各省、自治区、直辖市人民政府，国务院各部委、各直属机构： 经国务院批准，现将2023年元旦、春节、清明节、劳动节、端午节、中秋节和国庆节放假调休日期的具体安排通知如下。 一、元旦：2022年12月31日至2023年1月2日放假调休，共3天。 二、春节：1月21日至27日放假调休，共7天。1月28日（星期六）、1月29日（",
                      "Issue": [
                          "第1号"
                      ],
                      "documentType": 8,
                      "year": "2023年",
                      "document": "16",
                      "agencies": [
                          "国务院办公厅"
                      ],
                      "label": "国务院公报",
                      "source": 14,
                      "type": [
                          "国办发明电"
                      ],
                      "title": "国务院办公厅关于2023年部分<em>节假日</em><em>安排</em>的通知",
                      "url": "http://www.gov.cn/gongbao/content/2023/content_5736714.htm",
                      "content": "国务院办公厅关于2023年部分节假日安排的通知 国办发明电〔2022〕16号 各省、自治区、直辖市人民政府，国务院各部委、各直属机构： 经国务院批准，现将2023年元旦、春节、清明节、劳动节、端午节、中秋节和国庆节放假调休日期的具体安排通知如下。 一、元旦：2022年12月31日至2023年1月2日放假调休，共3天。 二、春节：1月21日至27日放假调休，共7天。1月28日（星期六）、1月29日（",
                      "general": "1792",
                      "title_no_tag": "国务院办公厅关于2023年部分节假日安排的通知",
                      "displayTemplateId": 6,
                      "documentId": "Qt2yDIgB6uX4EyfjPNS7",
                      "time": "2023-01-10 00:00:00",
                      "pubcode": 14
                  },
                  {
                      "summary": "国务院办公厅关于2023年部分节假日安排的通知 各省、自治区、直辖市人民政府，国务院各部委、各直属机构： 经国务院批准，现将2023年元旦、春节、清明节、劳动节、端午节、中秋节和国庆节放假调休日期的具体安排通知如下。 一、元旦：2022年12月31日至2023年1月2日放假调休，共3天。 二、春节：1月21日至27日放假调休，共7天。1月28日（星期六）、1月29日（星期日）上班。 三、清明节：4",
                      "documentType": 8,
                      "agencies": 33,
                      "label": "服务信息",
                      "source": 33,
                      "type": 8,
                      "title": "日历：2023年部分<em>节假日</em><em>安排</em>",
                      "url": "http://www.gov.cn/fuwu/2022-12/08/content_5730853.htm",
                      "content": "国务院办公厅关于2023年部分节假日安排的通知 各省、自治区、直辖市人民政府，国务院各部委、各直属机构： 经国务院批准，现将2023年元旦、春节、清明节、劳动节、端午节、中秋节和国庆节放假调休日期的具体安排通知如下。 一、元旦：2022年12月31日至2023年1月2日放假调休，共3天。 二、春节：1月21日至27日放假调休，共7天。1月28日（星期六）、1月29日（星期日）上班。 三、清明节：4",
                      "imgUrl": "[{\"name\":\"01.jpg.jpg\",\"url\":\"/fuwu/2022-12/08/W020230227295932186429.jpg\",\"others\":\"\"}]",
                      "title_no_tag": "日历：2023年部分节假日安排",
                      "displayTemplateId": 62,
                      "documentId": "E_GeD4gB6uX4Eyfj2gEn",
                      "time": "2022-12-08 23:11:08",
                      "pubcode": 33
                  },
                  {
                      "summary": "经国务院批准，现将2023年元旦、春节、清明节、劳动节、端午节、中秋节和国庆节放假调休日期的具体安排通知如下。",
                      "documentType": "通知",
                      "agencies": "国务院办公厅",
                      "label": "国务院办公厅",
                      "source": "国务院办公厅",
                      "type": "其他",
                      "title": "国务院办公厅关于2023年部分<em>节假日</em><em>安排</em>的通知",
                      "url": "http://www.gov.cn/zhengce/content/2022-12/08/content_5730844.htm",
                      "content": "国务院办公厅关于2023年 部分节假日安排的通知 国办发明电〔2022〕16号 各省、自治区、直辖市人民政府，国务院各部委、各直属机构： 经国务院批准，现将2023年元旦、春节、清明节、劳动节、端午节、中秋节和国庆节放假调休日期的具体安排通知如下。 一、元旦：2022年12月31日至2023年1月2日放假调休，共3天。 二、春节：1月21日至27日放假调休，共7天。1月28日（星期六）、1月29日",
                      "title_no_tag": "国务院办公厅关于2023年部分节假日安排的通知",
                      "displayTemplateId": 164,
                      "documentId": "i53FD4gB_31RV0sVK97H",
                      "time": "2022-12-08 23:00:00",
                      "pubcode": "国办发明电〔2022〕16号"
                  },
                  {
                      "summary": "国务院办公厅关于2022年 部分节假日安排的通知 国办发明电〔2021〕11号 各省、自治区、直辖市人民政府，国务院各部委、各直属机构： 经国务院批准，现将2022年元旦、春节、清明节、劳动节、端午节、中秋节和国庆节放假调休日期的具体安排通知如下。 一、元旦：2022年1月1日至3日放假，共3天。 二、春节：1月31日至2月6日放假调休，共7天。1月29日（星期六）、1月30日（星期日）上班。 三",
                      "Issue": [
                          "第32号"
                      ],
                      "documentType": 8,
                      "year": "2021年",
                      "document": "11",
                      "agencies": [
                          "国务院办公厅"
                      ],
                      "label": "国务院公报",
                      "source": 14,
                      "type": [
                          "国办发明电"
                      ],
                      "title": "国务院办公厅关于2022年部分<em>节假日</em><em>安排</em>的通知",
                      "url": "http://www.gov.cn/gongbao/content/2021/content_5651728.htm",
                      "content": "国务院办公厅关于2022年 部分节假日安排的通知 国办发明电〔2021〕11号 各省、自治区、直辖市人民政府，国务院各部委、各直属机构： 经国务院批准，现将2022年元旦、春节、清明节、劳动节、端午节、中秋节和国庆节放假调休日期的具体安排通知如下。 一、元旦：2022年1月1日至3日放假，共3天。 二、春节：1月31日至2月6日放假调休，共7天。1月29日（星期六）、1月30日（星期日）上班。 三",
                      "general": "1751",
                      "title_no_tag": "国务院办公厅关于2022年部分节假日安排的通知",
                      "displayTemplateId": 6,
                      "documentId": "6N7JDIgB6uX4EyfjOXCJ",
                      "time": "2021-11-20 23:00:00",
                      "pubcode": 14
                  },
                  {
                      "summary": "国务院办公厅关于2022年部分节假日安排的通知 各省、自治区、直辖市人民政府，国务院各部委、各直属机构： 经国务院批准，现将2022年元旦、春节、清明节、劳动节、端午节、中秋节和国庆节放假调休日期的具体安排通知如下。 一、元旦：2022年1月1日至3日放假，共3天。 二、春节：1月31日至2月6日放假调休，共7天。1月29日（星期六）、1月30日（星期日）上班。 三、清明节：4月3日至5日放假调休",
                      "documentType": 8,
                      "agencies": 33,
                      "label": "服务信息",
                      "source": 33,
                      "type": 8,
                      "title": "日历：2022年部分<em>节假日</em><em>安排</em>",
                      "url": "http://www.gov.cn/fuwu/2021-10/25/content_5644875.htm",
                      "content": "国务院办公厅关于2022年部分节假日安排的通知 各省、自治区、直辖市人民政府，国务院各部委、各直属机构： 经国务院批准，现将2022年元旦、春节、清明节、劳动节、端午节、中秋节和国庆节放假调休日期的具体安排通知如下。 一、元旦：2022年1月1日至3日放假，共3天。 二、春节：1月31日至2月6日放假调休，共7天。1月29日（星期六）、1月30日（星期日）上班。 三、清明节：4月3日至5日放假调休",
                      "imgUrl": null,
                      "title_no_tag": "日历：2022年部分节假日安排",
                      "displayTemplateId": 62,
                      "documentId": "thirdparty_code_107_t_17e043793dd_18731944",
                      "time": "2021-10-25 22:56:15",
                      "pubcode": 33
                  },
                  {
                      "summary": null,
                      "documentType": "通知",
                      "agencies": "国务院办公厅",
                      "label": "国务院办公厅",
                      "source": "国务院办公厅",
                      "type": "其他",
                      "title": "国务院办公厅关于2022年部分<em>节假日</em><em>安排</em>的通知",
                      "url": "http://www.gov.cn/zhengce/content/2021-10/25/content_5644835.htm",
                      "content": "国务院办公厅关于2022年 部分节假日安排的通知 国办发明电〔2021〕11号 各省、自治区、直辖市人民政府，国务院各部委、各直属机构： 经国务院批准，现将2022年元旦、春节、清明节、劳动节、端午节、中秋节和国庆节放假调休日期的具体安排通知如下。 一、元旦：2022年1月1日至3日放假，共3天。 二、春节：1月31日至2月6日放假调休，共7天。1月29日（星期六）、1月30日（星期日）上班。 三",
                      "title_no_tag": "国务院办公厅关于2022年部分节假日安排的通知",
                      "displayTemplateId": 164,
                      "documentId": "N_LFD4gB6uX4EyfjKpQf",
                      "time": "2021-10-25 22:52:00",
                      "pubcode": "国办发明电〔2021〕11号"
                  },
                  {
                      "summary": "国务院办公厅关于2021年 部分节假日安排的通知 国办发明电〔2020〕27号 各省、自治区、直辖市人民政府，国务院各部委、各直属机构： 经国务院批准，现将2021年元旦、春节、清明节、劳动节、端午节、中秋节和国庆节放假调休日期的具体安排通知如下。 一、元旦：2021年1月1日至3日放假，共3天。 二、春节：2月11日至17日放假调休，共7天。2月7日（星期日）、2月20日（星期六）上班。 三、清",
                      "Issue": [
                          "第34号"
                      ],
                      "documentType": 8,
                      "year": "2020年",
                      "document": "27",
                      "agencies": [
                          "国务院办公厅"
                      ],
                      "label": "国务院公报",
                      "source": 14,
                      "type": [
                          "国办发明电"
                      ],
                      "title": "国务院办公厅关于2021年部分<em>节假日</em><em>安排</em>的通知",
                      "url": "http://www.gov.cn/gongbao/content/2020/content_5567750.htm",
                      "content": "国务院办公厅关于2021年 部分节假日安排的通知 国办发明电〔2020〕27号 各省、自治区、直辖市人民政府，国务院各部委、各直属机构： 经国务院批准，现将2021年元旦、春节、清明节、劳动节、端午节、中秋节和国庆节放假调休日期的具体安排通知如下。 一、元旦：2021年1月1日至3日放假，共3天。 二、春节：2月11日至17日放假调休，共7天。2月7日（星期日）、2月20日（星期六）上班。 三、清",
                      "general": "1717",
                      "title_no_tag": "国务院办公厅关于2021年部分节假日安排的通知",
                      "displayTemplateId": 6,
                      "documentId": "rd7RDIgB6uX4EyfjA4t7",
                      "time": "2020-12-10 23:30:00",
                      "pubcode": 14
                  },
                  {
                      "summary": "国务院办公厅关于2021年部分节假日安排",
                      "documentType": 8,
                      "agencies": 33,
                      "label": "要闻",
                      "source": 33,
                      "type": 8,
                      "title": "图表：国务院办公厅关于2021年部分<em>节假日</em><em>安排</em>",
                      "url": "http://www.gov.cn/xinwen/2020-11/26/content_5564659.htm",
                      "content": "图表：国务院办公厅关于2021年部分节假日安排 新华社记者 孟丽静 编制",
                      "imgUrl": "[{\"name\":\"1111.jpg.jpg\",\"url\":\"/xinwen/2020-11/26/W020220411732013580811.jpg\",\"others\":\"\"}]",
                      "title_no_tag": "图表：国务院办公厅关于2021年部分节假日安排",
                      "displayTemplateId": 106,
                      "documentId": "thirdparty_code_107_t_17e00f1efbb_18170359",
                      "time": "2020-11-26 08:10:30",
                      "pubcode": 33
                  },
                  {
                      "summary": "各省、自治区、直辖市人民政府，国务院各部委、各直属机构： 经国务院批准，现将2021年元旦、春节、清明节、劳动节、端午节、中秋节和国庆节放假调休日期的具体安排通知如下。 一、元旦：2021年1月1日至3日放假，共3天。 二、春节：2月11日至17日放假调休，共7天。2月7日（星期日）、2月20日（星期六）上班。 三、清明节：4月3日至5日放假调休，共3天。 四、劳动节：5月1日至5日放假调休，共5",
                      "documentType": 8,
                      "agencies": 33,
                      "label": "服务信息",
                      "source": 33,
                      "type": 8,
                      "title": "国务院办公厅关于2021年部分<em>节假日</em><em>安排</em>的通知",
                      "url": "http://www.gov.cn/fuwu/2020-11/25/content_5564533.htm",
                      "content": "各省、自治区、直辖市人民政府，国务院各部委、各直属机构： 经国务院批准，现将2021年元旦、春节、清明节、劳动节、端午节、中秋节和国庆节放假调休日期的具体安排通知如下。 一、元旦：2021年1月1日至3日放假，共3天。 二、春节：2月11日至17日放假调休，共7天。2月7日（星期日）、2月20日（星期六）上班。 三、清明节：4月3日至5日放假调休，共3天。 四、劳动节：5月1日至5日放假调休，共5",
                      "imgUrl": "[{\"name\":\"999999.jpg.jpg\",\"url\":\"/fuwu/2020-11/25/W020220406826588149656.jpg\",\"others\":\"\"}]",
                      "title_no_tag": "国务院办公厅关于2021年部分节假日安排的通知",
                      "displayTemplateId": 62,
                      "documentId": "thirdparty_code_107_t_17e043793dd_18729742",
                      "time": "2020-11-25 20:12:34",
                      "pubcode": 33
                  },
                  {
                      "summary": null,
                      "documentType": "通知",
                      "agencies": "国务院办公厅",
                      "label": "国务院办公厅",
                      "source": "国务院办公厅",
                      "type": "其他",
                      "title": "国务院办公厅关于2021年部分<em>节假日</em><em>安排</em>的通知",
                      "url": "http://www.gov.cn/zhengce/content/2020-11/25/content_5564127.htm",
                      "content": "国务院办公厅关于2021年 部分节假日安排的通知 国办发明电〔2020〕27号 各省、自治区、直辖市人民政府，国务院各部委、各直属机构： 经国务院批准，现将2021年元旦、春节、清明节、劳动节、端午节、中秋节和国庆节放假调休日期的具体安排通知如下。 一、元旦：2021年1月1日至3日放假，共3天。 二、春节：2月11日至17日放假调休，共7天。2月7日（星期日）、2月20日（星期六）上班。 三、清",
                      "title_no_tag": "国务院办公厅关于2021年部分节假日安排的通知",
                      "displayTemplateId": 164,
                      "documentId": "GfLFD4gB6uX4EyfjJpRP",
                      "time": "2020-11-25 20:00:32",
                      "pubcode": "国办发明电〔2020〕27号"
                  }
              ],
              "listAndBox": [
                  {
                      "data": {
                          "summary": "国务院办公厅关于2023年部分节假日安排的通知 国办发明电〔2022〕16号 各省、自治区、直辖市人民政府，国务院各部委、各直属机构： 经国务院批准，现将2023年元旦、春节、清明节、劳动节、端午节、中秋节和国庆节放假调休日期的具体安排通知如下。 一、元旦：2022年12月31日至2023年1月2日放假调休，共3天。 二、春节：1月21日至27日放假调休，共7天。1月28日（星期六）、1月29日（",
                          "Issue": [
                              "第1号"
                          ],
                          "documentType": 8,
                          "year": "2023年",
                          "document": "16",
                          "agencies": [
                              "国务院办公厅"
                          ],
                          "label": "国务院公报",
                          "source": 14,
                          "type": [
                              "国办发明电"
                          ],
                          "title": "国务院办公厅关于2023年部分<em>节假日</em><em>安排</em>的通知",
                          "url": "http://www.gov.cn/gongbao/content/2023/content_5736714.htm",
                          "content": "国务院办公厅关于2023年部分节假日安排的通知 国办发明电〔2022〕16号 各省、自治区、直辖市人民政府，国务院各部委、各直属机构： 经国务院批准，现将2023年元旦、春节、清明节、劳动节、端午节、中秋节和国庆节放假调休日期的具体安排通知如下。 一、元旦：2022年12月31日至2023年1月2日放假调休，共3天。 二、春节：1月21日至27日放假调休，共7天。1月28日（星期六）、1月29日（",
                          "general": "1792",
                          "title_no_tag": "国务院办公厅关于2023年部分节假日安排的通知",
                          "displayTemplateId": 6,
                          "documentId": "Qt2yDIgB6uX4EyfjPNS7",
                          "time": "2023-01-10 00:00:00",
                          "pubcode": 14
                      },
                      "type": "DATA"
                  },
                  {
                      "data": {
                          "summary": "国务院办公厅关于2023年部分节假日安排的通知 各省、自治区、直辖市人民政府，国务院各部委、各直属机构： 经国务院批准，现将2023年元旦、春节、清明节、劳动节、端午节、中秋节和国庆节放假调休日期的具体安排通知如下。 一、元旦：2022年12月31日至2023年1月2日放假调休，共3天。 二、春节：1月21日至27日放假调休，共7天。1月28日（星期六）、1月29日（星期日）上班。 三、清明节：4",
                          "documentType": 8,
                          "agencies": 33,
                          "label": "服务信息",
                          "source": 33,
                          "type": 8,
                          "title": "日历：2023年部分<em>节假日</em><em>安排</em>",
                          "url": "http://www.gov.cn/fuwu/2022-12/08/content_5730853.htm",
                          "content": "国务院办公厅关于2023年部分节假日安排的通知 各省、自治区、直辖市人民政府，国务院各部委、各直属机构： 经国务院批准，现将2023年元旦、春节、清明节、劳动节、端午节、中秋节和国庆节放假调休日期的具体安排通知如下。 一、元旦：2022年12月31日至2023年1月2日放假调休，共3天。 二、春节：1月21日至27日放假调休，共7天。1月28日（星期六）、1月29日（星期日）上班。 三、清明节：4",
                          "imgUrl": "[{\"name\":\"01.jpg.jpg\",\"url\":\"/fuwu/2022-12/08/W020230227295932186429.jpg\",\"others\":\"\"}]",
                          "title_no_tag": "日历：2023年部分节假日安排",
                          "displayTemplateId": 62,
                          "documentId": "E_GeD4gB6uX4Eyfj2gEn",
                          "time": "2022-12-08 23:11:08",
                          "pubcode": 33
                      },
                      "type": "DATA"
                  },
                  {
                      "data": {
                          "summary": "经国务院批准，现将2023年元旦、春节、清明节、劳动节、端午节、中秋节和国庆节放假调休日期的具体安排通知如下。",
                          "documentType": "通知",
                          "agencies": "国务院办公厅",
                          "label": "国务院办公厅",
                          "source": "国务院办公厅",
                          "type": "其他",
                          "title": "国务院办公厅关于2023年部分<em>节假日</em><em>安排</em>的通知",
                          "url": "http://www.gov.cn/zhengce/content/2022-12/08/content_5730844.htm",
                          "content": "国务院办公厅关于2023年 部分节假日安排的通知 国办发明电〔2022〕16号 各省、自治区、直辖市人民政府，国务院各部委、各直属机构： 经国务院批准，现将2023年元旦、春节、清明节、劳动节、端午节、中秋节和国庆节放假调休日期的具体安排通知如下。 一、元旦：2022年12月31日至2023年1月2日放假调休，共3天。 二、春节：1月21日至27日放假调休，共7天。1月28日（星期六）、1月29日",
                          "title_no_tag": "国务院办公厅关于2023年部分节假日安排的通知",
                          "displayTemplateId": 164,
                          "documentId": "i53FD4gB_31RV0sVK97H",
                          "time": "2022-12-08 23:00:00",
                          "pubcode": "国办发明电〔2022〕16号"
                      },
                      "type": "DATA"
                  },
                  {
                      "data": {
                          "summary": "国务院办公厅关于2022年 部分节假日安排的通知 国办发明电〔2021〕11号 各省、自治区、直辖市人民政府，国务院各部委、各直属机构： 经国务院批准，现将2022年元旦、春节、清明节、劳动节、端午节、中秋节和国庆节放假调休日期的具体安排通知如下。 一、元旦：2022年1月1日至3日放假，共3天。 二、春节：1月31日至2月6日放假调休，共7天。1月29日（星期六）、1月30日（星期日）上班。 三",
                          "Issue": [
                              "第32号"
                          ],
                          "documentType": 8,
                          "year": "2021年",
                          "document": "11",
                          "agencies": [
                              "国务院办公厅"
                          ],
                          "label": "国务院公报",
                          "source": 14,
                          "type": [
                              "国办发明电"
                          ],
                          "title": "国务院办公厅关于2022年部分<em>节假日</em><em>安排</em>的通知",
                          "url": "http://www.gov.cn/gongbao/content/2021/content_5651728.htm",
                          "content": "国务院办公厅关于2022年 部分节假日安排的通知 国办发明电〔2021〕11号 各省、自治区、直辖市人民政府，国务院各部委、各直属机构： 经国务院批准，现将2022年元旦、春节、清明节、劳动节、端午节、中秋节和国庆节放假调休日期的具体安排通知如下。 一、元旦：2022年1月1日至3日放假，共3天。 二、春节：1月31日至2月6日放假调休，共7天。1月29日（星期六）、1月30日（星期日）上班。 三",
                          "general": "1751",
                          "title_no_tag": "国务院办公厅关于2022年部分节假日安排的通知",
                          "displayTemplateId": 6,
                          "documentId": "6N7JDIgB6uX4EyfjOXCJ",
                          "time": "2021-11-20 23:00:00",
                          "pubcode": 14
                      },
                      "type": "DATA"
                  },
                  {
                      "data": {
                          "summary": "国务院办公厅关于2022年部分节假日安排的通知 各省、自治区、直辖市人民政府，国务院各部委、各直属机构： 经国务院批准，现将2022年元旦、春节、清明节、劳动节、端午节、中秋节和国庆节放假调休日期的具体安排通知如下。 一、元旦：2022年1月1日至3日放假，共3天。 二、春节：1月31日至2月6日放假调休，共7天。1月29日（星期六）、1月30日（星期日）上班。 三、清明节：4月3日至5日放假调休",
                          "documentType": 8,
                          "agencies": 33,
                          "label": "服务信息",
                          "source": 33,
                          "type": 8,
                          "title": "日历：2022年部分<em>节假日</em><em>安排</em>",
                          "url": "http://www.gov.cn/fuwu/2021-10/25/content_5644875.htm",
                          "content": "国务院办公厅关于2022年部分节假日安排的通知 各省、自治区、直辖市人民政府，国务院各部委、各直属机构： 经国务院批准，现将2022年元旦、春节、清明节、劳动节、端午节、中秋节和国庆节放假调休日期的具体安排通知如下。 一、元旦：2022年1月1日至3日放假，共3天。 二、春节：1月31日至2月6日放假调休，共7天。1月29日（星期六）、1月30日（星期日）上班。 三、清明节：4月3日至5日放假调休",
                          "imgUrl": null,
                          "title_no_tag": "日历：2022年部分节假日安排",
                          "displayTemplateId": 62,
                          "documentId": "thirdparty_code_107_t_17e043793dd_18731944",
                          "time": "2021-10-25 22:56:15",
                          "pubcode": 33
                      },
                      "type": "DATA"
                  },
                  {
                      "data": {
                          "summary": null,
                          "documentType": "通知",
                          "agencies": "国务院办公厅",
                          "label": "国务院办公厅",
                          "source": "国务院办公厅",
                          "type": "其他",
                          "title": "国务院办公厅关于2022年部分<em>节假日</em><em>安排</em>的通知",
                          "url": "http://www.gov.cn/zhengce/content/2021-10/25/content_5644835.htm",
                          "content": "国务院办公厅关于2022年 部分节假日安排的通知 国办发明电〔2021〕11号 各省、自治区、直辖市人民政府，国务院各部委、各直属机构： 经国务院批准，现将2022年元旦、春节、清明节、劳动节、端午节、中秋节和国庆节放假调休日期的具体安排通知如下。 一、元旦：2022年1月1日至3日放假，共3天。 二、春节：1月31日至2月6日放假调休，共7天。1月29日（星期六）、1月30日（星期日）上班。 三",
                          "title_no_tag": "国务院办公厅关于2022年部分节假日安排的通知",
                          "displayTemplateId": 164,
                          "documentId": "N_LFD4gB6uX4EyfjKpQf",
                          "time": "2021-10-25 22:52:00",
                          "pubcode": "国办发明电〔2021〕11号"
                      },
                      "type": "DATA"
                  },
                  {
                      "data": {
                          "summary": "国务院办公厅关于2021年 部分节假日安排的通知 国办发明电〔2020〕27号 各省、自治区、直辖市人民政府，国务院各部委、各直属机构： 经国务院批准，现将2021年元旦、春节、清明节、劳动节、端午节、中秋节和国庆节放假调休日期的具体安排通知如下。 一、元旦：2021年1月1日至3日放假，共3天。 二、春节：2月11日至17日放假调休，共7天。2月7日（星期日）、2月20日（星期六）上班。 三、清",
                          "Issue": [
                              "第34号"
                          ],
                          "documentType": 8,
                          "year": "2020年",
                          "document": "27",
                          "agencies": [
                              "国务院办公厅"
                          ],
                          "label": "国务院公报",
                          "source": 14,
                          "type": [
                              "国办发明电"
                          ],
                          "title": "国务院办公厅关于2021年部分<em>节假日</em><em>安排</em>的通知",
                          "url": "http://www.gov.cn/gongbao/content/2020/content_5567750.htm",
                          "content": "国务院办公厅关于2021年 部分节假日安排的通知 国办发明电〔2020〕27号 各省、自治区、直辖市人民政府，国务院各部委、各直属机构： 经国务院批准，现将2021年元旦、春节、清明节、劳动节、端午节、中秋节和国庆节放假调休日期的具体安排通知如下。 一、元旦：2021年1月1日至3日放假，共3天。 二、春节：2月11日至17日放假调休，共7天。2月7日（星期日）、2月20日（星期六）上班。 三、清",
                          "general": "1717",
                          "title_no_tag": "国务院办公厅关于2021年部分节假日安排的通知",
                          "displayTemplateId": 6,
                          "documentId": "rd7RDIgB6uX4EyfjA4t7",
                          "time": "2020-12-10 23:30:00",
                          "pubcode": 14
                      },
                      "type": "DATA"
                  },
                  {
                      "data": {
                          "summary": "国务院办公厅关于2021年部分节假日安排",
                          "documentType": 8,
                          "agencies": 33,
                          "label": "要闻",
                          "source": 33,
                          "type": 8,
                          "title": "图表：国务院办公厅关于2021年部分<em>节假日</em><em>安排</em>",
                          "url": "http://www.gov.cn/xinwen/2020-11/26/content_5564659.htm",
                          "content": "图表：国务院办公厅关于2021年部分节假日安排 新华社记者 孟丽静 编制",
                          "imgUrl": "[{\"name\":\"1111.jpg.jpg\",\"url\":\"/xinwen/2020-11/26/W020220411732013580811.jpg\",\"others\":\"\"}]",
                          "title_no_tag": "图表：国务院办公厅关于2021年部分节假日安排",
                          "displayTemplateId": 106,
                          "documentId": "thirdparty_code_107_t_17e00f1efbb_18170359",
                          "time": "2020-11-26 08:10:30",
                          "pubcode": 33
                      },
                      "type": "DATA"
                  },
                  {
                      "data": {
                          "summary": "各省、自治区、直辖市人民政府，国务院各部委、各直属机构： 经国务院批准，现将2021年元旦、春节、清明节、劳动节、端午节、中秋节和国庆节放假调休日期的具体安排通知如下。 一、元旦：2021年1月1日至3日放假，共3天。 二、春节：2月11日至17日放假调休，共7天。2月7日（星期日）、2月20日（星期六）上班。 三、清明节：4月3日至5日放假调休，共3天。 四、劳动节：5月1日至5日放假调休，共5",
                          "documentType": 8,
                          "agencies": 33,
                          "label": "服务信息",
                          "source": 33,
                          "type": 8,
                          "title": "国务院办公厅关于2021年部分<em>节假日</em><em>安排</em>的通知",
                          "url": "http://www.gov.cn/fuwu/2020-11/25/content_5564533.htm",
                          "content": "各省、自治区、直辖市人民政府，国务院各部委、各直属机构： 经国务院批准，现将2021年元旦、春节、清明节、劳动节、端午节、中秋节和国庆节放假调休日期的具体安排通知如下。 一、元旦：2021年1月1日至3日放假，共3天。 二、春节：2月11日至17日放假调休，共7天。2月7日（星期日）、2月20日（星期六）上班。 三、清明节：4月3日至5日放假调休，共3天。 四、劳动节：5月1日至5日放假调休，共5",
                          "imgUrl": "[{\"name\":\"999999.jpg.jpg\",\"url\":\"/fuwu/2020-11/25/W020220406826588149656.jpg\",\"others\":\"\"}]",
                          "title_no_tag": "国务院办公厅关于2021年部分节假日安排的通知",
                          "displayTemplateId": 62,
                          "documentId": "thirdparty_code_107_t_17e043793dd_18729742",
                          "time": "2020-11-25 20:12:34",
                          "pubcode": 33
                      },
                      "type": "DATA"
                  },
                  {
                      "data": {
                          "summary": null,
                          "documentType": "通知",
                          "agencies": "国务院办公厅",
                          "label": "国务院办公厅",
                          "source": "国务院办公厅",
                          "type": "其他",
                          "title": "国务院办公厅关于2021年部分<em>节假日</em><em>安排</em>的通知",
                          "url": "http://www.gov.cn/zhengce/content/2020-11/25/content_5564127.htm",
                          "content": "国务院办公厅关于2021年 部分节假日安排的通知 国办发明电〔2020〕27号 各省、自治区、直辖市人民政府，国务院各部委、各直属机构： 经国务院批准，现将2021年元旦、春节、清明节、劳动节、端午节、中秋节和国庆节放假调休日期的具体安排通知如下。 一、元旦：2021年1月1日至3日放假，共3天。 二、春节：2月11日至17日放假调休，共7天。2月7日（星期日）、2月20日（星期六）上班。 三、清",
                          "title_no_tag": "国务院办公厅关于2021年部分节假日安排的通知",
                          "displayTemplateId": 164,
                          "documentId": "GfLFD4gB6uX4EyfjJpRP",
                          "time": "2020-11-25 20:00:32",
                          "pubcode": "国办发明电〔2020〕27号"
                      },
                      "type": "DATA"
                  }
              ]
          },
          "searchInfo": {
              "searchTerms": null,
              "wordId": "IT5bBogBp1P2gtOH5If9",
              "wordIndexName": "dict-public-20220818",
              "searchWord": "节假日安排",
              "hitWord": "节假日安排"
          },
          "pager": {
              "pageCount": 5,
              "total": 47,
              "pageNo": 1,
              "pageSize": 10
          },
          "left": null,
          "right": {
              "box": []
          },
          "spendTime": 0.016
      }
  },
  "resultCode": {
      "cnMsg": true,
      "code": 200
  }
}